{
    "fluentMethods": true,
    "relationships": [
        {
            "relationshipName": "motate",
            "otherEntityName": "motate",
            "relationshipType": "many-to-one",
            "otherEntityField": "id"
        },
        {
            "relationshipName": "oficina",
            "otherEntityName": "oficina",
            "relationshipType": "many-to-one",
            "otherEntityField": "id"
        },
        {
            "relationshipType": "one-to-many",
            "relationshipName": "motateselec",
            "otherEntityName": "motateselec",
            "otherEntityRelationshipName": "motatenofic"
        },
        {
            "relationshipType": "one-to-many",
            "relationshipName": "motivPase",
            "otherEntityName": "motivPase",
            "otherEntityRelationshipName": "motatenofic"
        }
    ],
    "fields": [
        {
            "fieldName": "nUsuareg",
            "fieldType": "Integer",
            "fieldValidateRules": [
                "required"
            ]
        },
        {
            "fieldName": "tFecreg",
            "fieldType": "Instant",
            "fieldValidateRules": [
                "required"
            ]
        },
        {
            "fieldName": "nFlgactivo",
            "fieldType": "Boolean",
            "fieldValidateRules": [
                "required"
            ]
        },
        {
            "fieldName": "nSedereg",
            "fieldType": "Integer",
            "fieldValidateRules": [
                "required"
            ]
        },
        {
            "fieldName": "nUsuaupd",
            "fieldType": "Integer"
        },
        {
            "fieldName": "tFecupd",
            "fieldType": "Instant"
        },
        {
            "fieldName": "nSedeupd",
            "fieldType": "Integer"
        }
    ],
    "changelogDate": "20171122141314",
    "entityTableName": "motatenofic",
    "dto": "no",
    "pagination": "no",
    "service": "no",
    "jpaMetamodelFiltering": false,
    "microserviceName": "CONSULTAS"
}